<?xml version="1.0" encoding="UTF-8" standalone="no"?>
<svg width="150px" height="150px" viewBox="0 0 150 150" version="1.1" xmlns="http://www.w3.org/2000/svg" xmlns:xlink="http://www.w3.org/1999/xlink" xmlns:sketch="http://www.bohemiancoding.com/sketch/ns">
    <!-- Generator: bin/sketchtool 1.4 (305) - http://www.bohemiancoding.com/sketch -->
    <title>Oval 6 + icon-114894</title>
    <desc>Created with bin/sketchtool.</desc>
    <defs>
        <path id="path-1" d="M0.01668546,0.238524168 L87.3205742,0.238524168 L87.3205742,108.936601 L0.01668546,108.936601 L0.01668546,0.238524168 Z"></path>
    </defs>
    <g id="Page-2" stroke="none" stroke-width="1" fill="none" fill-rule="evenodd" sketch:type="MSPage">
        <g id="Startseite-Design-V3" sketch:type="MSArtboardGroup" transform="translate(-1045.000000, -1500.000000)">
            <g id="Sidebar---Gastautor" sketch:type="MSLayerGroup" transform="translate(935.000000, 1400.000000)">
                <rect id="Rectangle-20" fill="#F3F4F6" sketch:type="MSShapeGroup" x="0" y="0" width="370" height="394" rx="2"></rect>
                <g id="Oval-6-+-icon-114894" transform="translate(112.000000, 102.000000)">
                    <circle id="Oval-6" stroke="#394F70" stroke-width="4" fill="#394F70" sketch:type="MSShapeGroup" cx="73" cy="73" r="73"></circle>
                    <g id="social-1" transform="translate(30.038278, 16.066986)">
                        <mask id="mask-2" sketch:name="Clip 2" fill="white">
                            <use xlink:href="#path-1"></use>
                        </mask>
                        <g id="Clip-2"></g>
                        <path d="M73.409628,63.0329303 C60.9063786,58.9496634 55.7083016,53.8728238 55.7083016,53.8728238 L55.2900527,54.2714761 C51.5772598,57.7648266 47.4709681,59.819526 43.7298098,59.819526 L43.3766343,59.819526 C39.635476,59.819526 35.5294624,57.7648266 31.815279,54.2714761 L31.3970301,53.8728238 C31.3970301,53.8728238 26.2003436,58.9496634 13.6970941,63.0329303 C-4.76008366,69.9251111 0.78115762,97.9761648 0.776708164,98.193283 C1.35791836,101.316337 1.69691129,102.39053 1.99113156,102.510904 C20.5264529,110.760838 66.5799912,110.760838 85.1153125,102.510904 C85.4098109,102.39053 85.7488038,101.316337 86.330014,98.193283 C86.3244522,97.9761648 91.9405,70.0360332 73.409628,63.0329303 L73.409628,63.0329303 Z" id="Fill-1" fill="#F3F4F6" sketch:type="MSShapeGroup" mask="url(#mask-2)"></path>
                        <path d="M62.9364429,27.2467991 L62.7823805,27.078331 C61.7437106,26.1284044 61.8251912,26.1826144 61.8251912,26.1826144 C61.8251912,26.1826144 63.6361198,17.046694 62.1836505,12.7257369 C59.9035824,5.82438209 46.2826852,1.20068284 43.5504411,0.661918465 C43.5504411,0.657470462 41.8885693,0.325260228 41.7831728,0.324148228 C41.7831728,0.324148228 39.6335294,-0.110088077 37.1435026,0.975780685 C35.5216759,1.60016912 27.0410127,5.44324382 24.633857,12.7257369 C23.1825001,17.046694 24.9934287,26.1826144 24.9934287,26.1826144 C24.9934287,26.1826144 25.0749093,26.1284044 24.0365175,27.078331 L23.8810647,27.2467991 C23.1783287,28.0438257 23.3521356,30.5394335 24.1199448,33.1359553 C24.8162847,35.7366471 25.7234175,36.4360956 25.9406066,37.045194 C28.1436435,47.3854113 35.8042163,56.2152535 43.6113431,56.2152535 C51.4184698,56.2152535 58.673864,47.3854113 60.8769009,37.045194 C61.0952024,36.4360956 62.0023352,35.7366471 62.6975627,33.1359553 C63.46565,30.5394335 63.6600357,27.8734116 62.9364429,27.2467991 L62.9364429,27.2467991 Z" id="Fill-3" fill="#F3F4F6" sketch:type="MSShapeGroup" mask="url(#mask-2)"></path>
                    </g>
                </g>
            </g>
        </g>
    </g>
</svg>