<?xml version="1.0" encoding="UTF-8" standalone="no"?>
<svg
   xmlns:sketch="http://www.bohemiancoding.com/sketch/ns"
   xmlns:dc="http://purl.org/dc/elements/1.1/"
   xmlns:cc="http://creativecommons.org/ns#"
   xmlns:rdf="http://www.w3.org/1999/02/22-rdf-syntax-ns#"
   xmlns:svg="http://www.w3.org/2000/svg"
   xmlns="http://www.w3.org/2000/svg"
   xmlns:xlink="http://www.w3.org/1999/xlink"
   xmlns:sodipodi="http://sodipodi.sourceforge.net/DTD/sodipodi-0.dtd"
   xmlns:inkscape="http://www.inkscape.org/namespaces/inkscape"
   width="30px"
   height="30px"
   viewBox="0 0 30 30"
   version="1.1"
   id="svg2"
   inkscape:version="0.91 r13725"
   sodipodi:docname="Mail Icon.svg">
  <metadata
     id="metadata26">
    <rdf:RDF>
      <cc:Work
         rdf:about="">
        <dc:format>image/svg+xml</dc:format>
        <dc:type
           rdf:resource="http://purl.org/dc/dcmitype/StillImage" />
      </cc:Work>
    </rdf:RDF>
  </metadata>
  <sodipodi:namedview
     pagecolor="#ffffff"
     bordercolor="#666666"
     borderopacity="1"
     objecttolerance="10"
     gridtolerance="10"
     guidetolerance="10"
     inkscape:pageopacity="0"
     inkscape:pageshadow="2"
     inkscape:window-width="1855"
     inkscape:window-height="1056"
     id="namedview24"
     showgrid="false"
     inkscape:zoom="0.49166667"
     inkscape:cx="297.18864"
     inkscape:cy="21.372587"
     inkscape:window-x="65"
     inkscape:window-y="24"
     inkscape:window-maximized="1"
     inkscape:current-layer="svg2" />
  <!-- Generator: Sketch 3.3.3 (12072) - http://www.bohemiancoding.com/sketch -->
  <title
     id="title4">Mail Icon</title>
  <desc
     id="desc6">Created with Sketch.</desc>
  <defs
     id="defs8">
    <path
       id="path-1"
       d="M0.0311111111,0.162792 L13.4814815,0.162792 L13.4814815,12.930792 L0.0311111111,12.930792 L0.0311111111,0.162792 Z" />
  </defs>
  <g
     id="Page-2"
     stroke="none"
     stroke-width="1"
     fill="none"
     fill-rule="evenodd"
     sketch:type="MSPage">
    <g
       id="About-Us-V3"
       sketch:type="MSArtboardGroup"
       transform="translate(-319.000000, -1425.000000)">
      <g
         id="Group"
         sketch:type="MSLayerGroup"
         transform="translate(135.000000, 1314.000000)">
        <g
           id="Mail-Icon"
           transform="translate(184.000000, 111.000000)">
          <circle
             id="Oval-28"
             fill="#394F70"
             sketch:type="MSShapeGroup"
             cx="15"
             cy="15"
             r="15" />
          <g
             id="Icon"
             transform="translate(8.000000, 9.000000)">
            <mask
               id="mask-2"
               sketch:name="Clip 2"
               fill="white">
              <use
                 xlink:href="#path-1"
                 id="use19" />
            </mask>
            <g
               id="Clip-2" />
            <path
               d="M0.532518519,5.002396 C0.248888889,5.114648 0.0466666667,5.376392 0.0082962963,5.686016 C-0.0321481481,5.99564 0.0954074074,6.303668 0.342222222,6.486144 L3.03437037,8.49604 L12.6005185,0.775656 L4.14192593,9.324896 L7.82444444,12.072144 C8.05725926,12.24664 8.35903704,12.300904 8.63851852,12.213656 C8.91592593,12.126408 9.13681481,11.910416 9.23792593,11.631648 L13.1755556,0.5719 C13.216,0.459648 13.188,0.333032 13.1045185,0.25004 C13.0215556,0.166516 12.9002222,0.139916 12.7908148,0.18354 L0.532518519,5.002396 Z"
               id="Fill-1"
               fill="#FFFFFF"
               sketch:type="MSShapeGroup"
               mask="url(#mask-2)" />
            <path
               d="M2.39607407,9.164764 L2.41837037,9.29404 L2.94103704,12.223764 C2.97940741,12.442416 3.12148148,12.624892 3.31955556,12.714268 C3.51607407,12.801516 3.74525926,12.782896 3.92518519,12.662664 C4.65266667,12.18014 5.60466667,11.542272 5.57822222,11.505032 L2.39607407,9.164764 Z"
               id="Fill-4"
               fill="#FFFFFF"
               sketch:type="MSShapeGroup"
               mask="url(#mask-2)" />
          </g>
        </g>
      </g>
    </g>
  </g>
</svg>
